\relax 
\providecommand\hyper@newdestlabel[2]{}
\providecommand\HyperFirstAtBeginDocument{\AtBeginDocument}
\HyperFirstAtBeginDocument{\ifx\hyper@anchor\@undefined
\global\let\oldcontentsline\contentsline
\gdef\contentsline#1#2#3#4{\oldcontentsline{#1}{#2}{#3}}
\global\let\oldnewlabel\newlabel
\gdef\newlabel#1#2{\newlabelxx{#1}#2}
\gdef\newlabelxx#1#2#3#4#5#6{\oldnewlabel{#1}{{#2}{#3}}}
\AtEndDocument{\ifx\hyper@anchor\@undefined
\let\contentsline\oldcontentsline
\let\newlabel\oldnewlabel
\fi}
\fi}
\global\let\hyper@last\relax 
\gdef\HyperFirstAtBeginDocument#1{#1}
\providecommand\HyField@AuxAddToFields[1]{}
\providecommand\HyField@AuxAddToCoFields[2]{}
\catcode `"\active 
\abx@aux@sortscheme{anyt}
\abx@aux@refcontext{anyt/global/}
\@writefile{toc}{\boolfalse {citerequest}\boolfalse {citetracker}\boolfalse {pagetracker}\boolfalse {backtracker}\relax }
\@writefile{lof}{\boolfalse {citerequest}\boolfalse {citetracker}\boolfalse {pagetracker}\boolfalse {backtracker}\relax }
\@writefile{lot}{\boolfalse {citerequest}\boolfalse {citetracker}\boolfalse {pagetracker}\boolfalse {backtracker}\relax }
\select@language{dutch}
\@writefile{toc}{\defcounter {refsection}{0}\relax }\@writefile{toc}{\select@language{dutch}}
\@writefile{lof}{\defcounter {refsection}{0}\relax }\@writefile{lof}{\select@language{dutch}}
\@writefile{lot}{\defcounter {refsection}{0}\relax }\@writefile{lot}{\select@language{dutch}}
\@writefile{toc}{\defcounter {refsection}{0}\relax }\@writefile{toc}{\contentsline {chapter}{\numberline {1}Introductie}{3}{chapter.1}}
\@writefile{lof}{\defcounter {refsection}{0}\relax }\@writefile{lof}{\addvspace {10\p@ }}
\@writefile{lot}{\defcounter {refsection}{0}\relax }\@writefile{lot}{\addvspace {10\p@ }}
\@writefile{toc}{\defcounter {refsection}{0}\relax }\@writefile{toc}{\contentsline {section}{\numberline {1.1}Aanleiding}{3}{section.1.1}}
\@writefile{toc}{\defcounter {refsection}{0}\relax }\@writefile{toc}{\contentsline {section}{\numberline {1.2}Organisatie}{3}{section.1.2}}
\@writefile{toc}{\defcounter {refsection}{0}\relax }\@writefile{toc}{\contentsline {section}{\numberline {1.3}Doelgroep}{3}{section.1.3}}
\@writefile{toc}{\defcounter {refsection}{0}\relax }\@writefile{toc}{\contentsline {section}{\numberline {1.4}Opbouw}{3}{section.1.4}}
\@writefile{toc}{\defcounter {refsection}{0}\relax }\@writefile{toc}{\contentsline {chapter}{\numberline {2}Project opdracht}{4}{chapter.2}}
\@writefile{lof}{\defcounter {refsection}{0}\relax }\@writefile{lof}{\addvspace {10\p@ }}
\@writefile{lot}{\defcounter {refsection}{0}\relax }\@writefile{lot}{\addvspace {10\p@ }}
\@writefile{toc}{\defcounter {refsection}{0}\relax }\@writefile{toc}{\contentsline {section}{\numberline {2.1}Casus}{4}{section.2.1}}
\@writefile{toc}{\defcounter {refsection}{0}\relax }\@writefile{toc}{\contentsline {subsection}{\numberline {2.1.1}Huidige situatie}{4}{subsection.2.1.1}}
\@writefile{toc}{\defcounter {refsection}{0}\relax }\@writefile{toc}{\contentsline {subsection}{\numberline {2.1.2}Doelstellingen}{4}{subsection.2.1.2}}
\newlabel{doelstelling}{{2.1.2}{4}{Doelstellingen}{subsection.2.1.2}{}}
\@writefile{toc}{\defcounter {refsection}{0}\relax }\@writefile{toc}{\contentsline {section}{\numberline {2.2}Opdracht}{4}{section.2.2}}
\@writefile{toc}{\defcounter {refsection}{0}\relax }\@writefile{toc}{\contentsline {section}{\numberline {2.3}Deliverables}{4}{section.2.3}}
\@writefile{toc}{\defcounter {refsection}{0}\relax }\@writefile{toc}{\contentsline {section}{\numberline {2.4}Uitgangspunten en aannames}{5}{section.2.4}}
\abx@aux@cite{ref:moscow}
\abx@aux@segm{0}{0}{ref:moscow}
\@writefile{toc}{\defcounter {refsection}{0}\relax }\@writefile{toc}{\contentsline {chapter}{\numberline {3}Afbakening}{6}{chapter.3}}
\@writefile{lof}{\defcounter {refsection}{0}\relax }\@writefile{lof}{\addvspace {10\p@ }}
\@writefile{lot}{\defcounter {refsection}{0}\relax }\@writefile{lot}{\addvspace {10\p@ }}
\newlabel{afbakening}{{3}{6}{Afbakening}{chapter.3}{}}
\@writefile{toc}{\defcounter {refsection}{0}\relax }\@writefile{toc}{\contentsline {section}{\numberline {3.1}MoSCoW}{6}{section.3.1}}
\@writefile{lot}{\defcounter {refsection}{0}\relax }\@writefile{lot}{\contentsline {table}{\numberline {3.1}{\ignorespaces MoSCoW afbakening\relax }}{6}{table.caption.2}}
\providecommand*\caption@xref[2]{\@setref\relax\@undefined{#1}}
\newlabel{moscow-table}{{3.1}{6}{MoSCoW afbakening\relax }{table.caption.2}{}}
\@writefile{toc}{\defcounter {refsection}{0}\relax }\@writefile{toc}{\contentsline {section}{\numberline {3.2}Use cases}{7}{section.3.2}}
\@writefile{toc}{\defcounter {refsection}{0}\relax }\@writefile{toc}{\contentsline {subsection}{\numberline {3.2.1}Use case diagram}{7}{subsection.3.2.1}}
\@writefile{lof}{\defcounter {refsection}{0}\relax }\@writefile{lof}{\contentsline {figure}{\numberline {3.1}{\ignorespaces Use case diagram\relax }}{7}{figure.caption.3}}
\newlabel{fig:UCD}{{3.1}{7}{Use case diagram\relax }{figure.caption.3}{}}
\@writefile{toc}{\defcounter {refsection}{0}\relax }\@writefile{toc}{\contentsline {subsection}{\numberline {3.2.2}Use case samenvatting}{7}{subsection.3.2.2}}
\newlabel{projOrg}{{3.2.2}{7}{Use case samenvatting}{subsection.3.2.2}{}}
\@writefile{toc}{\defcounter {refsection}{0}\relax }\@writefile{toc}{\contentsline {chapter}{\numberline {4}Projectorganisatie}{8}{chapter.4}}
\@writefile{lof}{\defcounter {refsection}{0}\relax }\@writefile{lof}{\addvspace {10\p@ }}
\@writefile{lot}{\defcounter {refsection}{0}\relax }\@writefile{lot}{\addvspace {10\p@ }}
\@writefile{toc}{\defcounter {refsection}{0}\relax }\@writefile{toc}{\contentsline {section}{\numberline {4.1}Projectstructuur}{8}{section.4.1}}
\@writefile{toc}{\defcounter {refsection}{0}\relax }\@writefile{toc}{\contentsline {section}{\numberline {4.2}Rapportagestructuur}{8}{section.4.2}}
\@writefile{toc}{\defcounter {refsection}{0}\relax }\@writefile{toc}{\contentsline {chapter}{\numberline {5}Aanpak}{9}{chapter.5}}
\@writefile{lof}{\defcounter {refsection}{0}\relax }\@writefile{lof}{\addvspace {10\p@ }}
\@writefile{lot}{\defcounter {refsection}{0}\relax }\@writefile{lot}{\addvspace {10\p@ }}
\@writefile{toc}{\defcounter {refsection}{0}\relax }\@writefile{toc}{\contentsline {section}{\numberline {5.1}Fasering}{9}{section.5.1}}
\@writefile{toc}{\defcounter {refsection}{0}\relax }\@writefile{toc}{\contentsline {section}{\numberline {5.2}Mijlpalen}{9}{section.5.2}}
\@writefile{lot}{\defcounter {refsection}{0}\relax }\@writefile{lot}{\contentsline {table}{\numberline {5.1}{\ignorespaces Fasering\relax }}{9}{table.caption.4}}
\newlabel{my-label}{{5.1}{9}{Fasering\relax }{table.caption.4}{}}
\abx@aux@cite{ref:gantt}
\abx@aux@segm{0}{0}{ref:gantt}
\abx@aux@cite{ref:waterval}
\abx@aux@segm{0}{0}{ref:waterval}
\@writefile{toc}{\defcounter {refsection}{0}\relax }\@writefile{toc}{\contentsline {chapter}{\numberline {6}Planning}{10}{chapter.6}}
\@writefile{lof}{\defcounter {refsection}{0}\relax }\@writefile{lof}{\addvspace {10\p@ }}
\@writefile{lot}{\defcounter {refsection}{0}\relax }\@writefile{lot}{\addvspace {10\p@ }}
\@writefile{toc}{\defcounter {refsection}{0}\relax }\@writefile{toc}{\contentsline {section}{\numberline {6.1}Gantt chart}{10}{section.6.1}}
\@writefile{lof}{\defcounter {refsection}{0}\relax }\@writefile{lof}{\contentsline {figure}{\numberline {6.1}{\ignorespaces Gantt chart\relax }}{10}{figure.caption.5}}
\newlabel{gantt}{{6.1}{10}{Gantt chart\relax }{figure.caption.5}{}}
\@writefile{toc}{\defcounter {refsection}{0}\relax }\@writefile{toc}{\contentsline {chapter}{\numberline {7}Kosten}{11}{chapter.7}}
\@writefile{lof}{\defcounter {refsection}{0}\relax }\@writefile{lof}{\addvspace {10\p@ }}
\@writefile{lot}{\defcounter {refsection}{0}\relax }\@writefile{lot}{\addvspace {10\p@ }}
\@writefile{toc}{\defcounter {refsection}{0}\relax }\@writefile{toc}{\contentsline {section}{\numberline {7.1}Projectkosten}{11}{section.7.1}}
\@writefile{lot}{\defcounter {refsection}{0}\relax }\@writefile{lot}{\contentsline {table}{\numberline {7.1}{\ignorespaces Kosten in uren\relax }}{11}{table.caption.6}}
\newlabel{uren-overzicht}{{7.1}{11}{Kosten in uren\relax }{table.caption.6}{}}
\@writefile{toc}{\defcounter {refsection}{0}\relax }\@writefile{toc}{\contentsline {chapter}{\numberline {8}Risico's}{12}{chapter.8}}
\@writefile{lof}{\defcounter {refsection}{0}\relax }\@writefile{lof}{\addvspace {10\p@ }}
\@writefile{lot}{\defcounter {refsection}{0}\relax }\@writefile{lot}{\addvspace {10\p@ }}
\@writefile{toc}{\defcounter {refsection}{0}\relax }\@writefile{toc}{\contentsline {section}{\numberline {8.1}Implementatie risico's}{12}{section.8.1}}
\@writefile{toc}{\defcounter {refsection}{0}\relax }\@writefile{toc}{\contentsline {chapter}{\numberline {9}Bijlagen}{14}{chapter.9}}
\@writefile{lof}{\defcounter {refsection}{0}\relax }\@writefile{lof}{\addvspace {10\p@ }}
\@writefile{lot}{\defcounter {refsection}{0}\relax }\@writefile{lot}{\addvspace {10\p@ }}
\@writefile{toc}{\defcounter {refsection}{0}\relax }\@writefile{toc}{\contentsline {section}{\numberline {9.1}Use Case Samenvattingen}{14}{section.9.1}}
\newlabel{blg:UCS}{{9.1}{14}{Use Case Samenvattingen}{section.9.1}{}}
\@writefile{toc}{\defcounter {refsection}{0}\relax }\@writefile{toc}{\contentsline {subsection}{\numberline {9.1.1}Tafels}{14}{subsection.9.1.1}}
\@writefile{lot}{\defcounter {refsection}{0}\relax }\@writefile{lot}{\contentsline {table}{\numberline {9.1}{\ignorespaces Tafel toevoegen - Samenvatting\relax }}{14}{table.caption.8}}
\newlabel{UCS1}{{9.1}{14}{Tafel toevoegen - Samenvatting\relax }{table.caption.8}{}}
\@writefile{lot}{\defcounter {refsection}{0}\relax }\@writefile{lot}{\contentsline {table}{\numberline {9.2}{\ignorespaces Tafel inzien - Samenvatting\relax }}{14}{table.caption.9}}
\newlabel{UCS2}{{9.2}{14}{Tafel inzien - Samenvatting\relax }{table.caption.9}{}}
\@writefile{lot}{\defcounter {refsection}{0}\relax }\@writefile{lot}{\contentsline {table}{\numberline {9.3}{\ignorespaces Tafel aanpassen - Samenvatting\relax }}{14}{table.caption.10}}
\newlabel{UCS3}{{9.3}{14}{Tafel aanpassen - Samenvatting\relax }{table.caption.10}{}}
\@writefile{lot}{\defcounter {refsection}{0}\relax }\@writefile{lot}{\contentsline {table}{\numberline {9.4}{\ignorespaces Tafel verwijderen - Samenvatting\relax }}{14}{table.caption.11}}
\newlabel{UCS4}{{9.4}{14}{Tafel verwijderen - Samenvatting\relax }{table.caption.11}{}}
\@writefile{toc}{\defcounter {refsection}{0}\relax }\@writefile{toc}{\contentsline {subsection}{\numberline {9.1.2}Producten}{15}{subsection.9.1.2}}
\@writefile{lot}{\defcounter {refsection}{0}\relax }\@writefile{lot}{\contentsline {table}{\numberline {9.5}{\ignorespaces Product toevoegen - Samenvatting\relax }}{15}{table.caption.12}}
\newlabel{UCS5}{{9.5}{15}{Product toevoegen - Samenvatting\relax }{table.caption.12}{}}
\@writefile{lot}{\defcounter {refsection}{0}\relax }\@writefile{lot}{\contentsline {table}{\numberline {9.6}{\ignorespaces Producten inzien - Samenvatting\relax }}{15}{table.caption.13}}
\newlabel{UCS6}{{9.6}{15}{Producten inzien - Samenvatting\relax }{table.caption.13}{}}
\@writefile{lot}{\defcounter {refsection}{0}\relax }\@writefile{lot}{\contentsline {table}{\numberline {9.7}{\ignorespaces Product aanpassen - Samenvatting\relax }}{15}{table.caption.14}}
\newlabel{UCS7}{{9.7}{15}{Product aanpassen - Samenvatting\relax }{table.caption.14}{}}
\@writefile{lot}{\defcounter {refsection}{0}\relax }\@writefile{lot}{\contentsline {table}{\numberline {9.8}{\ignorespaces Product verwijderen - Samenvatting\relax }}{15}{table.caption.15}}
\newlabel{UCS8}{{9.8}{15}{Product verwijderen - Samenvatting\relax }{table.caption.15}{}}
\@writefile{lot}{\defcounter {refsection}{0}\relax }\@writefile{lot}{\contentsline {table}{\numberline {9.9}{\ignorespaces Product verwijderen - Samenvatting\relax }}{15}{table.caption.16}}
\newlabel{UCS9}{{9.9}{15}{Product verwijderen - Samenvatting\relax }{table.caption.16}{}}
\@writefile{toc}{\defcounter {refsection}{0}\relax }\@writefile{toc}{\contentsline {subsection}{\numberline {9.1.3}Bestellingen}{16}{subsection.9.1.3}}
\@writefile{lot}{\defcounter {refsection}{0}\relax }\@writefile{lot}{\contentsline {table}{\numberline {9.10}{\ignorespaces Bestelling toevoegen - Samenvatting\relax }}{16}{table.caption.17}}
\newlabel{UCS10}{{9.10}{16}{Bestelling toevoegen - Samenvatting\relax }{table.caption.17}{}}
\@writefile{lot}{\defcounter {refsection}{0}\relax }\@writefile{lot}{\contentsline {table}{\numberline {9.11}{\ignorespaces Bestelling toevoegen - Samenvatting\relax }}{16}{table.caption.18}}
\newlabel{UCS11}{{9.11}{16}{Bestelling toevoegen - Samenvatting\relax }{table.caption.18}{}}
\@writefile{lot}{\defcounter {refsection}{0}\relax }\@writefile{lot}{\contentsline {table}{\numberline {9.12}{\ignorespaces Bestelling aanpassen - Samenvatting\relax }}{16}{table.caption.19}}
\newlabel{UCS12}{{9.12}{16}{Bestelling aanpassen - Samenvatting\relax }{table.caption.19}{}}
\@writefile{lot}{\defcounter {refsection}{0}\relax }\@writefile{lot}{\contentsline {table}{\numberline {9.13}{\ignorespaces Bestelling annuleren - Samenvatting\relax }}{16}{table.caption.20}}
\newlabel{UCS13}{{9.13}{16}{Bestelling annuleren - Samenvatting\relax }{table.caption.20}{}}
\@writefile{lot}{\defcounter {refsection}{0}\relax }\@writefile{lot}{\contentsline {table}{\numberline {9.14}{\ignorespaces Bestelling afronden - Samenvatting\relax }}{16}{table.caption.21}}
\newlabel{UCS14}{{9.14}{16}{Bestelling afronden - Samenvatting\relax }{table.caption.21}{}}
\abx@aux@refcontextdefaultsdone
\abx@aux@defaultrefcontext{0}{ref:gantt}{anyt/global/}
\abx@aux@defaultrefcontext{0}{ref:waterval}{anyt/global/}
\abx@aux@defaultrefcontext{0}{ref:moscow}{anyt/global/}
