\boolfalse {citerequest}\boolfalse {citetracker}\boolfalse {pagetracker}\boolfalse {backtracker}\relax 
\defcounter {refsection}{0}\relax 
\select@language {dutch}
\defcounter {refsection}{0}\relax 
\contentsline {chapter}{\numberline {1}Introductie}{3}{chapter.1}
\defcounter {refsection}{0}\relax 
\contentsline {section}{\numberline {1.1}Aanleiding}{3}{section.1.1}
\defcounter {refsection}{0}\relax 
\contentsline {section}{\numberline {1.2}Organisatie}{3}{section.1.2}
\defcounter {refsection}{0}\relax 
\contentsline {section}{\numberline {1.3}Doelgroep}{3}{section.1.3}
\defcounter {refsection}{0}\relax 
\contentsline {section}{\numberline {1.4}Opbouw}{3}{section.1.4}
\defcounter {refsection}{0}\relax 
\contentsline {chapter}{\numberline {2}Project opdracht}{4}{chapter.2}
\defcounter {refsection}{0}\relax 
\contentsline {section}{\numberline {2.1}Casus}{4}{section.2.1}
\defcounter {refsection}{0}\relax 
\contentsline {subsection}{\numberline {2.1.1}Huidige situatie}{4}{subsection.2.1.1}
\defcounter {refsection}{0}\relax 
\contentsline {subsection}{\numberline {2.1.2}Doelstellingen}{4}{subsection.2.1.2}
\defcounter {refsection}{0}\relax 
\contentsline {section}{\numberline {2.2}Opdracht}{4}{section.2.2}
\defcounter {refsection}{0}\relax 
\contentsline {section}{\numberline {2.3}Deliverables}{4}{section.2.3}
\defcounter {refsection}{0}\relax 
\contentsline {section}{\numberline {2.4}Uitgangspunten en aannames}{5}{section.2.4}
\defcounter {refsection}{0}\relax 
\contentsline {chapter}{\numberline {3}Afbakening}{6}{chapter.3}
\defcounter {refsection}{0}\relax 
\contentsline {section}{\numberline {3.1}MoSCoW}{6}{section.3.1}
\defcounter {refsection}{0}\relax 
\contentsline {section}{\numberline {3.2}Use cases}{7}{section.3.2}
\defcounter {refsection}{0}\relax 
\contentsline {subsection}{\numberline {3.2.1}Use case diagram}{7}{subsection.3.2.1}
\defcounter {refsection}{0}\relax 
\contentsline {subsection}{\numberline {3.2.2}Use case samenvatting}{7}{subsection.3.2.2}
\defcounter {refsection}{0}\relax 
\contentsline {chapter}{\numberline {4}Projectorganisatie}{8}{chapter.4}
\defcounter {refsection}{0}\relax 
\contentsline {section}{\numberline {4.1}Projectstructuur}{8}{section.4.1}
\defcounter {refsection}{0}\relax 
\contentsline {section}{\numberline {4.2}Rapportagestructuur}{8}{section.4.2}
\defcounter {refsection}{0}\relax 
\contentsline {chapter}{\numberline {5}Aanpak}{9}{chapter.5}
\defcounter {refsection}{0}\relax 
\contentsline {section}{\numberline {5.1}Fasering}{9}{section.5.1}
\defcounter {refsection}{0}\relax 
\contentsline {section}{\numberline {5.2}Mijlpalen}{9}{section.5.2}
\defcounter {refsection}{0}\relax 
\contentsline {chapter}{\numberline {6}Planning}{10}{chapter.6}
\defcounter {refsection}{0}\relax 
\contentsline {section}{\numberline {6.1}Gantt chart}{10}{section.6.1}
\defcounter {refsection}{0}\relax 
\contentsline {chapter}{\numberline {7}Kosten}{11}{chapter.7}
\defcounter {refsection}{0}\relax 
\contentsline {section}{\numberline {7.1}Projectkosten}{11}{section.7.1}
\defcounter {refsection}{0}\relax 
\contentsline {chapter}{\numberline {8}Risico's}{12}{chapter.8}
\defcounter {refsection}{0}\relax 
\contentsline {section}{\numberline {8.1}Implementatie risico's}{12}{section.8.1}
\defcounter {refsection}{0}\relax 
\contentsline {chapter}{\numberline {9}Bijlagen}{14}{chapter.9}
\defcounter {refsection}{0}\relax 
\contentsline {section}{\numberline {9.1}Use Case Samenvattingen}{14}{section.9.1}
\defcounter {refsection}{0}\relax 
\contentsline {subsection}{\numberline {9.1.1}Tafels}{14}{subsection.9.1.1}
\defcounter {refsection}{0}\relax 
\contentsline {subsection}{\numberline {9.1.2}Producten}{15}{subsection.9.1.2}
\defcounter {refsection}{0}\relax 
\contentsline {subsection}{\numberline {9.1.3}Bestellingen}{16}{subsection.9.1.3}
