# Fdb version 3
["pdflatex"] 1492869066 "project_proposal.tex" "project_proposal.pdf" "project_proposal" 1492869067
  "/usr/local/texlive/2016/texmf-dist/fonts/map/fontname/texfonts.map" 1272929888 3287 e6b82fe08f5336d4d5ebc73fb1152e87 ""
  "/usr/local/texlive/2016/texmf-dist/fonts/tfm/public/cm/cmbx12.tfm" 1136768653 1324 c910af8c371558dc20f2d7822f66fe64 ""
  "/usr/local/texlive/2016/texmf-dist/fonts/tfm/public/cm/cmmi12.tfm" 1136768653 1524 4414a8315f39513458b80dfc63bff03a ""
  "/usr/local/texlive/2016/texmf-dist/fonts/tfm/public/cm/cmmi6.tfm" 1136768653 1512 f21f83efb36853c0b70002322c1ab3ad ""
  "/usr/local/texlive/2016/texmf-dist/fonts/tfm/public/cm/cmmi8.tfm" 1136768653 1520 eccf95517727cb11801f4f1aee3a21b4 ""
  "/usr/local/texlive/2016/texmf-dist/fonts/tfm/public/cm/cmr10.tfm" 1136768653 1296 45809c5a464d5f32c8f98ba97c1bb47f ""
  "/usr/local/texlive/2016/texmf-dist/fonts/tfm/public/cm/cmr12.tfm" 1136768653 1288 655e228510b4c2a1abe905c368440826 ""
  "/usr/local/texlive/2016/texmf-dist/fonts/tfm/public/cm/cmr17.tfm" 1136768653 1292 296a67155bdbfc32aa9c636f21e91433 ""
  "/usr/local/texlive/2016/texmf-dist/fonts/tfm/public/cm/cmr6.tfm" 1136768653 1300 b62933e007d01cfd073f79b963c01526 ""
  "/usr/local/texlive/2016/texmf-dist/fonts/tfm/public/cm/cmr8.tfm" 1136768653 1292 21c1c5bfeaebccffdb478fd231a0997d ""
  "/usr/local/texlive/2016/texmf-dist/fonts/tfm/public/cm/cmsy10.tfm" 1136768653 1124 6c73e740cf17375f03eec0ee63599741 ""
  "/usr/local/texlive/2016/texmf-dist/fonts/tfm/public/cm/cmsy6.tfm" 1136768653 1116 933a60c408fc0a863a92debe84b2d294 ""
  "/usr/local/texlive/2016/texmf-dist/fonts/tfm/public/cm/cmsy8.tfm" 1136768653 1120 8b7d695260f3cff42e636090a8002094 ""
  "/usr/local/texlive/2016/texmf-dist/fonts/type1/public/amsfonts/cm/cmbx12.pfb" 1248133631 32080 340ef9bf63678554ee606688e7b5339d ""
  "/usr/local/texlive/2016/texmf-dist/fonts/type1/public/amsfonts/cm/cmr10.pfb" 1248133631 35752 024fb6c41858982481f6968b5fc26508 ""
  "/usr/local/texlive/2016/texmf-dist/fonts/type1/public/amsfonts/cm/cmr12.pfb" 1248133631 32722 d7379af29a190c3f453aba36302ff5a9 ""
  "/usr/local/texlive/2016/texmf-dist/fonts/type1/public/amsfonts/cm/cmr17.pfb" 1248133631 32362 179c33bbf43f19adbb3825bb4e36e57a ""
  "/usr/local/texlive/2016/texmf-dist/fonts/type1/public/amsfonts/cm/cmsy10.pfb" 1248133631 32569 5e5ddc8df908dea60932f3c484a54c0d ""
  "/usr/local/texlive/2016/texmf-dist/tex/context/base/mkii/supp-pdf.mkii" 1461363279 71627 94eb9990bed73c364d7f53f960cc8c5b ""
  "/usr/local/texlive/2016/texmf-dist/tex/generic/oberdiek/etexcmds.sty" 1463608860 7612 729a8cc22a1ee0029997c7f74717ae05 ""
  "/usr/local/texlive/2016/texmf-dist/tex/generic/oberdiek/ifluatex.sty" 1463608860 7324 2310d1247db0114eb4726807c8837a0e ""
  "/usr/local/texlive/2016/texmf-dist/tex/generic/oberdiek/ifpdf.sty" 1463348357 1226 01a89dfef361f60ae7df13cd2946bc16 ""
  "/usr/local/texlive/2016/texmf-dist/tex/generic/oberdiek/infwarerr.sty" 1463608860 8253 473e0e41f9adadb1977e8631b8f72ea6 ""
  "/usr/local/texlive/2016/texmf-dist/tex/generic/oberdiek/kvdefinekeys.sty" 1463608860 5152 b67a3a964ad9851e095110c854a1d461 ""
  "/usr/local/texlive/2016/texmf-dist/tex/generic/oberdiek/kvsetkeys.sty" 1463608860 14040 ac8866aac45982ac84021584b0abb252 ""
  "/usr/local/texlive/2016/texmf-dist/tex/generic/oberdiek/ltxcmds.sty" 1463608860 18425 5b3c0c59d76fac78978b5558e83c1f36 ""
  "/usr/local/texlive/2016/texmf-dist/tex/generic/oberdiek/pdftexcmds.sty" 1463002681 19987 582d4214d7e8c829fbc760e4d0fa7b4f ""
  "/usr/local/texlive/2016/texmf-dist/tex/latex/base/inputenc.sty" 1459635588 4732 d63eda807ac82cca2ca8488efd31a966 ""
  "/usr/local/texlive/2016/texmf-dist/tex/latex/base/omscmr.fd" 1454284088 2256 80ce1168fb4ce6a85583a9cf8972c013 ""
  "/usr/local/texlive/2016/texmf-dist/tex/latex/base/omsenc.dfu" 1459635588 2004 b59846258a6c54fecbe43d981c7a8310 ""
  "/usr/local/texlive/2016/texmf-dist/tex/latex/base/ot1enc.dfu" 1459635588 3181 f6d8c97e5b5009a3b4a1e34490b9aa0d ""
  "/usr/local/texlive/2016/texmf-dist/tex/latex/base/report.cls" 1459635588 22880 e7be6f7dd8c05d5108bf3a7d8cabe59a ""
  "/usr/local/texlive/2016/texmf-dist/tex/latex/base/size12.clo" 1459635588 8303 1d67e16498f00f63da792fab169302fc ""
  "/usr/local/texlive/2016/texmf-dist/tex/latex/base/t1enc.dfu" 1459635588 11059 f4f43783cf4a8ffee1b201d897840536 ""
  "/usr/local/texlive/2016/texmf-dist/tex/latex/base/utf8.def" 1459635588 7784 02e454c0f50491e8730511d8fcc96a47 ""
  "/usr/local/texlive/2016/texmf-dist/tex/latex/graphics-cfg/graphics.cfg" 1459978653 3103 f32642b1cd56c010cdfb6545539b7f0b ""
  "/usr/local/texlive/2016/texmf-dist/tex/latex/graphics/graphics.sty" 1462915952 14391 bd64a9e5d07473b936423b5f3280ed2c ""
  "/usr/local/texlive/2016/texmf-dist/tex/latex/graphics/graphicx.sty" 1428932888 8125 557ab9f1bfa80d369fb45a914aa8a3b4 ""
  "/usr/local/texlive/2016/texmf-dist/tex/latex/graphics/keyval.sty" 1428932888 2594 d18d5e19aa8239cf867fa670c556d2e9 ""
  "/usr/local/texlive/2016/texmf-dist/tex/latex/graphics/trig.sty" 1454284088 3980 0a268fbfda01e381fa95821ab13b6aee ""
  "/usr/local/texlive/2016/texmf-dist/tex/latex/latexconfig/epstopdf-sys.cfg" 1279039959 678 4792914a8f45be57bb98413425e4c7af ""
  "/usr/local/texlive/2016/texmf-dist/tex/latex/lipsum/lipsum.sty" 1406996843 103491 f3a8d28ba533bcdb24167b15de14ff22 ""
  "/usr/local/texlive/2016/texmf-dist/tex/latex/oberdiek/epstopdf-base.sty" 1463608860 12095 5337833c991d80788a43d3ce26bd1c46 ""
  "/usr/local/texlive/2016/texmf-dist/tex/latex/oberdiek/grfext.sty" 1463608860 7075 2fe3d848bba95f139de11ded085e74aa ""
  "/usr/local/texlive/2016/texmf-dist/tex/latex/oberdiek/kvoptions.sty" 1463608860 22417 1d9df1eb66848aa31b18a593099cf45c ""
  "/usr/local/texlive/2016/texmf-dist/tex/latex/pdftex-def/pdftex.def" 1306616590 55368 3c8a0d99822330f2dfabc0dfb09ce897 ""
  "/usr/local/texlive/2016/texmf-dist/tex/latex/titlesec/titlesec.sty" 1458858524 37387 afa86533e532701faf233f3f592c61e0 ""
  "/usr/local/texlive/2016/texmf-dist/web2c/texmf.cnf" 1463093894 31953 b9489e6e586f798610c60aec1f5ec548 ""
  "/usr/local/texlive/2016/texmf-var/fonts/map/pdftex/updmap/pdftex.map" 1486990649 1888048 f2c5faed5981a516f406b2ccc20bff71 ""
  "/usr/local/texlive/2016/texmf-var/web2c/pdftex/pdflatex.fmt" 1486990679 3873397 6a35fc43d4e13ddec4e819db90f46691 ""
  "/usr/local/texlive/2016/texmf.cnf" 1463979140 577 2938757e76f31531e65cc647e3507693 ""
  "chapters/chp01.tex" 1492798077 518 4ea604d8e81138ad618a6c7c1c4ef050 ""
  "chapters/introduction.tex" 1492798079 442 26a3ca159fef421ba07a317f3f87d599 ""
  "chapters/risicos.tex" 1492869065 529 2f7e679a46ad0c997d935f90520285ec ""
  "project_proposal.aux" 1492869067 536 2cd97c1a14f6440ef765f3d61a3532c0 ""
  "project_proposal.tex" 1492868841 929 04d0ee895e4fe71a36db85d9b7a31ef8 ""
  "project_proposal.toc" 1492869067 228 7f5878570aab0e4b8cd98933722327d5 ""
  (generated)
  "project_proposal.log"
  "project_proposal.aux"
  "project_proposal.pdf"
  "project_proposal.toc"
