\contentsline {chapter}{\numberline {1}Introductie}{3}
\contentsline {section}{\numberline {1.1}Introductie}{3}
\contentsline {chapter}{\numberline {2}Achtergrond}{4}
\contentsline {section}{\numberline {2.1}Achtergrond}{4}
\contentsline {chapter}{\numberline {3}Casus}{5}
\contentsline {section}{\numberline {3.1}Huidige Situatie}{5}
\contentsline {section}{\numberline {3.2}Casus Voorstel}{5}
\contentsline {chapter}{\numberline {4}Afbakening}{6}
\contentsline {section}{\numberline {4.1}Must}{6}
\contentsline {section}{\numberline {4.2}Should}{6}
\contentsline {section}{\numberline {4.3}Could}{6}
\contentsline {section}{\numberline {4.4}Would}{6}
